module logs2stackdriver

go 1.17

require (
	cloud.google.com/go v0.81.0 // indirect
	cloud.google.com/go/logging v1.4.2 // indirect
	github.com/golang/groupcache v0.0.0-20200121045136-8c9f03a8e57e // indirect
	github.com/golang/protobuf v1.5.2 // indirect
	github.com/google/go-cmp v0.5.5 // indirect
	github.com/googleapis/gax-go/v2 v2.0.5 // indirect
	github.com/jstemmer/go-junit-report v0.9.1 // indirect
	go.opencensus.io v0.23.0 // indirect
	golang.org/x/lint v0.0.0-20201208152925-83fdc39ff7b5 // indirect
	golang.org/x/mod v0.4.1 // indirect
	golang.org/x/net v0.0.0-20210503060351-7fd8e65b6420 // indirect
	golang.org/x/oauth2 v0.0.0-20210514164344-f6687ab2804c // indirect
	golang.org/x/sync v0.0.0-20210220032951-036812b2e83c // indirect
	golang.org/x/sys v0.0.0-20210503080704-8803ae5d1324 // indirect
	golang.org/x/text v0.3.6 // indirect
	golang.org/x/tools v0.1.0 // indirect
	golang.org/x/xerrors v0.0.0-20200804184101-5ec99f83aff1 // indirect
	google.golang.org/api v0.46.0 // indirect
	google.golang.org/appengine v1.6.7 // indirect
	google.golang.org/genproto v0.0.0-20210517163617-5e0236093d7a // indirect
	google.golang.org/grpc v1.37.1 // indirect
	google.golang.org/protobuf v1.26.0 // indirect
)
